{
  "board": {
    "3dviewports": [],
    "design_settings": {
      "defaults": {
        "board_outline_line_width": 0.049999999999999996,
        "copper_line_width": 0.19999999999999998,
        "copper_text_italic": false,
        "copper_text_size_h": 1.5,
        "copper_text_size_v": 1.5,
        "copper_text_thickness": 0.3,
        "copper_text_upright": true,
        "courtyard_line_width": 0.049999999999999996,
        "dimension_precision": 1,
        "dimension_units": 2,
        "dimensions": {
          "arrow_length": 1270000,
          "extension_offset": 500000,
          "keep_text_aligned": true,
          "suppress_zeroes": false,
          "text_position": 0,
          "units_format": 1
        },
        "fab_line_width": 0.09999999999999999,
        "fab_text_italic": false,
        "fab_text_size_h": 1.0,
        "fab_text_size_v": 1.0,
        "fab_text_thickness": 0.15,
        "fab_text_upright": true,
        "other_line_width": 0.09999999999999999,
        "other_text_italic": false,
        "other_text_size_h": 1.0,
        "other_text_size_v": 1.0,
        "other_text_thickness": 0.15,
        "other_text_upright": true,
        "pads": {
          "drill": 0.0,
          "height": 1.0,
          "width": 1.0
        },
        "silk_line_width": 0.12,
        "silk_text_italic": false,
        "silk_text_size_h": 1.0,
        "silk_text_size_v": 1.0,
        "silk_text_thickness": 0.15,
        "silk_text_upright": true,
        "zones": {
          "45_degree_only": false,
          "min_clearance": 0.19999999999999998
        }
      },
      "diff_pair_dimensions": [
        {
          "gap": 0.0,
          "via_gap": 0.0,
          "width": 0.0
        }
      ],
      "drc_exclusions": [
        "clearance|87150000|140800000|713a642e-4662-4581-a311-4a183ae3a0a4|0e2e2e70-712c-4a91-9883-5badae873369",
        "courtyards_overlap|102580000|139229999|00000000-0000-0000-0000-00005db27222|00000000-0000-0000-0000-00005e4ffe1e",
        "courtyards_overlap|102580000|142700000|00000000-0000-0000-0000-00005db270f4|00000000-0000-0000-0000-00005e4ffe1e",
        "courtyards_overlap|116660000|142900000|00000000-0000-0000-0000-00005db26ea8|00000000-0000-0000-0000-00005db2741b",
        "courtyards_overlap|126820000|142900000|00000000-0000-0000-0000-00005db272bc|00000000-0000-0000-0000-00005db2741b",
        "courtyards_overlap|144725000|118017468|00000000-0000-0000-0000-00005d888938|00000000-0000-0000-0000-00005e2b4dc2",
        "courtyards_overlap|86925000|140617468|00000000-0000-0000-0000-00005db273cf|00000000-0000-0000-0000-00005e2b4dc5"
      ],
      "meta": {
        "version": 2
      },
      "rule_severities": {
        "annular_width": "error",
        "clearance": "error",
        "connection_width": "warning",
        "copper_edge_clearance": "ignore",
        "copper_sliver": "warning",
        "courtyards_overlap": "error",
        "diff_pair_gap_out_of_range": "error",
        "diff_pair_uncoupled_length_too_long": "error",
        "drill_out_of_range": "error",
        "duplicate_footprints": "warning",
        "extra_footprint": "warning",
        "footprint": "error",
        "footprint_type_mismatch": "ignore",
        "hole_clearance": "error",
        "hole_near_hole": "error",
        "invalid_outline": "error",
        "isolated_copper": "warning",
        "item_on_disabled_layer": "error",
        "items_not_allowed": "error",
        "length_out_of_range": "error",
        "lib_footprint_issues": "warning",
        "lib_footprint_mismatch": "warning",
        "malformed_courtyard": "error",
        "microvia_drill_out_of_range": "error",
        "missing_courtyard": "ignore",
        "missing_footprint": "warning",
        "net_conflict": "warning",
        "npth_inside_courtyard": "ignore",
        "padstack": "error",
        "pth_inside_courtyard": "ignore",
        "shorting_items": "error",
        "silk_edge_clearance": "warning",
        "silk_over_copper": "ignore",
        "silk_overlap": "ignore",
        "skew_out_of_range": "error",
        "solder_mask_bridge": "error",
        "starved_thermal": "error",
        "text_height": "warning",
        "text_thickness": "warning",
        "through_hole_pad_without_hole": "error",
        "too_many_vias": "error",
        "track_dangling": "warning",
        "track_width": "error",
        "tracks_crossing": "error",
        "unconnected_items": "error",
        "unresolved_variable": "error",
        "via_dangling": "warning",
        "zone_has_empty_net": "error",
        "zones_intersect": "error"
      },
      "rules": {
        "allow_blind_buried_vias": false,
        "allow_microvias": false,
        "max_error": 0.005,
        "min_clearance": 0.0,
        "min_connection": 0.0,
        "min_copper_edge_clearance": 0.01,
        "min_hole_clearance": 0.0,
        "min_hole_to_hole": 0.25,
        "min_microvia_diameter": 0.19999999999999998,
        "min_microvia_drill": 0.09999999999999999,
        "min_resolved_spokes": 2,
        "min_silk_clearance": 0.0,
        "min_text_height": 0.7999999999999999,
        "min_text_thickness": 0.08,
        "min_through_hole_diameter": 0.3,
        "min_track_width": 0.19999999999999998,
        "min_via_annular_width": 0.049999999999999996,
        "min_via_annulus": 0.049999999999999996,
        "min_via_diameter": 0.39999999999999997,
        "solder_mask_to_copper_clearance": 0.0,
        "use_height_for_length_calcs": true
      },
      "teardrop_options": [
        {
          "td_onpadsmd": true,
          "td_onroundshapesonly": false,
          "td_ontrackend": false,
          "td_onviapad": true
        }
      ],
      "teardrop_parameters": [
        {
          "td_allow_use_two_tracks": true,
          "td_curve_segcount": 0,
          "td_height_ratio": 1.0,
          "td_length_ratio": 0.5,
          "td_maxheight": 2.0,
          "td_maxlen": 1.0,
          "td_on_pad_in_zone": false,
          "td_target_name": "td_round_shape",
          "td_width_to_size_filter_ratio": 0.9
        },
        {
          "td_allow_use_two_tracks": true,
          "td_curve_segcount": 0,
          "td_height_ratio": 1.0,
          "td_length_ratio": 0.5,
          "td_maxheight": 2.0,
          "td_maxlen": 1.0,
          "td_on_pad_in_zone": false,
          "td_target_name": "td_rect_shape",
          "td_width_to_size_filter_ratio": 0.9
        },
        {
          "td_allow_use_two_tracks": true,
          "td_curve_segcount": 0,
          "td_height_ratio": 1.0,
          "td_length_ratio": 0.5,
          "td_maxheight": 2.0,
          "td_maxlen": 1.0,
          "td_on_pad_in_zone": false,
          "td_target_name": "td_track_end",
          "td_width_to_size_filter_ratio": 0.9
        }
      ],
      "track_widths": [
        0.25,
        0.2,
        0.4,
        1.0,
        2.0
      ],
      "via_dimensions": [
        {
          "diameter": 0.85,
          "drill": 0.4
        }
      ],
      "zones_allow_external_fillets": false,
      "zones_use_no_outline": true
    },
    "layer_presets": [
      {
        "activeLayer": -2,
        "layers": [
          3,
          4,
          5,
          6,
          7,
          8,
          9,
          10,
          11,
          12,
          13,
          14,
          15,
          16,
          17,
          18,
          19,
          20,
          21,
          22,
          23,
          24,
          25,
          26,
          27,
          28,
          29,
          30,
          41,
          44,
          49,
          50
        ],
        "name": "Fabrication",
        "renderLayers": [
          125,
          126,
          127,
          128,
          129,
          130,
          131,
          133,
          134,
          135,
          136,
          137,
          138,
          139,
          143,
          144
        ]
      }
    ],
    "viewports": []
  },
  "boards": [],
  "cvpcb": {
    "equivalence_files": []
  },
  "erc": {
    "meta": {
      "version": 0
    },
    "pin_map": [
      [
        0,
        0,
        0,
        0,
        0,
        1,
        0,
        0,
        0,
        0,
        2
      ],
      [
        0,
        2,
        0,
        1,
        0,
        1,
        0,
        2,
        2,
        2,
        2
      ],
      [
        0,
        0,
        0,
        0,
        0,
        1,
        0,
        1,
        0,
        1,
        2
      ],
      [
        0,
        1,
        0,
        0,
        0,
        1,
        1,
        2,
        1,
        1,
        2
      ],
      [
        0,
        0,
        0,
        0,
        0,
        1,
        0,
        0,
        0,
        0,
        2
      ],
      [
        1,
        1,
        1,
        1,
        1,
        1,
        1,
        1,
        1,
        1,
        2
      ],
      [
        0,
        0,
        0,
        1,
        0,
        1,
        0,
        0,
        0,
        0,
        2
      ],
      [
        0,
        2,
        1,
        2,
        0,
        1,
        0,
        2,
        2,
        2,
        2
      ],
      [
        0,
        2,
        0,
        1,
        0,
        1,
        0,
        2,
        0,
        0,
        2
      ],
      [
        0,
        2,
        1,
        1,
        0,
        1,
        0,
        2,
        0,
        0,
        2
      ],
      [
        2,
        2,
        2,
        2,
        2,
        2,
        2,
        2,
        2,
        2,
        2
      ]
    ],
    "rule_severities": {
      "bus_definition_conflict": "error",
      "bus_label_syntax": "error",
      "bus_to_bus_conflict": "error",
      "bus_to_net_conflict": "error",
      "different_unit_footprint": "error",
      "different_unit_net": "error",
      "duplicate_sheet_names": "error",
      "global_label_dangling": "error",
      "hier_label_mismatch": "error",
      "label_dangling": "error",
      "lib_symbol_issues": "warning",
      "multiple_net_names": "error",
      "net_not_bus_member": "error",
      "no_connect_connected": "error",
      "no_connect_dangling": "error",
      "pin_not_connected": "error",
      "pin_not_driven": "error",
      "pin_to_pin": "warning",
      "similar_labels": "error",
      "unresolved_variable": "error",
      "wire_dangling": "error"
    }
  },
  "libraries": {
    "pinned_footprint_libs": [],
    "pinned_symbol_libs": []
  },
  "meta": {
    "filename": "issue6039.kicad_pro",
    "version": 1
  },
  "net_settings": {
    "classes": [
      {
        "bus_width": 12,
        "clearance": 0.2,
        "diff_pair_gap": 0.25,
        "diff_pair_via_gap": 0.25,
        "diff_pair_width": 0.2,
        "line_style": 0,
        "microvia_diameter": 0.3,
        "microvia_drill": 0.1,
        "name": "Default",
        "pcb_color": "rgba(0, 0, 0, 0.000)",
        "schematic_color": "rgba(0, 0, 0, 0.000)",
        "track_width": 0.25,
        "via_diameter": 0.85,
        "via_drill": 0.4,
        "wire_width": 6
      },
      {
        "bus_width": 12,
        "clearance": 0.25,
        "diff_pair_gap": 0.25,
        "diff_pair_via_gap": 0.25,
        "diff_pair_width": 0.2,
        "line_style": 0,
        "microvia_diameter": 0.3,
        "microvia_drill": 0.1,
        "name": "antenna",
        "pcb_color": "rgba(0, 0, 0, 0.000)",
        "schematic_color": "rgba(0, 0, 0, 0.000)",
        "track_width": 1.27,
        "via_diameter": 0.85,
        "via_drill": 0.4,
        "wire_width": 6
      }
    ],
    "meta": {
      "version": 3
    },
    "net_colors": null,
    "netclass_assignments": null,
    "netclass_patterns": []
  },
  "pcbnew": {
    "last_paths": {
      "gencad": "",
      "idf": "",
      "netlist": "",
      "plot": "",
      "pos_files": "",
      "specctra_dsn": "",
      "step": "",
      "svg": "",
      "vmrl": "",
      "vrml": ""
    },
    "page_layout_descr_file": ""
  },
  "schematic": {
    "drawing": {
      "default_bus_thickness": 12.0,
      "default_junction_size": 40.0,
      "default_line_thickness": 6.0,
      "default_text_size": 50.0,
      "default_wire_thickness": 6.0,
      "field_names": [],
      "intersheets_ref_prefix": "[",
      "intersheets_ref_short": false,
      "intersheets_ref_show": false,
      "intersheets_ref_suffix": "]",
      "pin_symbol_size": 25.0,
      "text_offset_ratio": 0.3
    },
    "legacy_lib_dir": "",
    "legacy_lib_list": [],
    "meta": {
      "version": 0
    },
    "net_format_name": "",
    "page_layout_descr_file": "",
    "plot_directory": "./",
    "spice_adjust_passive_values": false,
    "spice_external_command": "spice \"%I\"",
    "subpart_first_id": 65,
    "subpart_id_separator": 0
  },
  "sheets": [
    [
      "285a99a7-a1a2-4aa6-812b-d3c3533a57d7",
      ""
    ],
    [
      "00000000-0000-0000-0000-00005d8236a8",
      "battery-protection"
    ],
    [
      "00000000-0000-0000-0000-00005d8260b7",
      "voltage-regulation"
    ],
    [
      "00000000-0000-0000-0000-00005d825820",
      "RS485-interface"
    ],
    [
      "00000000-0000-0000-0000-00005d84b44c",
      "I2C-interface"
    ]
  ],
  "text_variables": {}
}
